<?xml version="1.0" encoding="utf-8"?>
<!-- Generator: Adobe Illustrator 19.0.0, SVG Export Plug-In . SVG Version: 6.00 Build 0)  -->
<svg version="1.1" id="Layer_1" xmlns="http://www.w3.org/2000/svg" xmlns:xlink="http://www.w3.org/1999/xlink" x="0px" y="0px"
	 viewBox="0 0 21 21" style="enable-background:new 0 0 21 21;" xml:space="preserve">
<style type="text/css">
	.st0{fill:#FFFFFF;}
</style>
<path id="facebook_10_" class="st0" d="M11.9,21v-9.9h3.3l-0.1-3.9l-3.2,0V4.9c0,0,0-1.1,1.2-1.1c1.2,0,3.1,0,3.1,0V0
	c0,0-5.1,0-4.9,0C7.8,0,7.6,4.2,7.6,4.2v3L4.8,7.2l0,3.9h2.8V21H11.9z"/>
</svg>
